4 Analysis | _main.knit
…
4 Analysis

4.1 Initial analysis

The code tfs_tidy %>% count(word, sort = TRUE) simply counts the frequency of each unique word in the tfs_tidy dataset, sorting the results in descending order based on word count.

tfs_tidy %>% 
  filter(række == 1) %>% 
  filter(bind %in% c(5,6)) %>% 
  count(word, sort = TRUE)

## # A tibble: 22,581 × 2
##    word      n
##    <chr> <int>
##  1 og    12073
##  2 at     8014
##  3 i      5560
##  4 til    4792
##  5 det    4566
##  6 som    4475
##  7 de     4296
##  8 en     3702
##  9 den    3688
## 10 er     3455
## # ℹ 22,571 more rows
…
This code performs several operations on the tfs_tidy dataset, which contains tokenized text data:

tfs_tidy %>%
  anti_join(stopord_da) %>% 
  anti_join(stopord_de) %>% 
  anti_join(stopord_tfs) %>% 
  count(word, sort = TRUE)

## Joining with `by = join_by(word)`
## Joining with `by = join_by(word)`
## Joining with `by = join_by(word)`

## # A tibble: 166,534 × 2
##    word      n
##    <chr> <int>
##  1 gud    5781
##  2 tid    4711
##  3 mere   4425
##  4 imod   4418
##  5 vore   4303
##  6 store  4273
##  7 folk   4269
##  8 2      4257
##  9 stor   4086
## 10 intet  4052
## # ℹ 166,524 more rows
…
This does the exact same thing, but only on text from Række 1, binde 5+6 (Landøkonomi (31 skrifter).)

tfs_tidy %>%
  anti_join(stopord_da) %>% 
  anti_join(stopord_de) %>% 
  anti_join(stopord_tfs) %>% 
  count(word, sort = TRUE)

## Joining with `by = join_by(word)`
## Joining with `by = join_by(word)`
## Joining with `by = join_by(word)`

## # A tibble: 166,534 × 2
##    word      n
##    <chr> <int>
##  1 gud    5781
##  2 tid    4711
##  3 mere   4425
##  4 imod   4418
##  5 vore   4303
##  6 store  4273
##  7 folk   4269
##  8 2      4257
##  9 stor   4086
## 10 intet  4052
## # ℹ 166,524 more rows
…
